-------------------------------------------------------------------------------
Test set: RFMSparkTransformationsTest
-------------------------------------------------------------------------------
Tests run: 11, Failures: 0, Errors: 0, Skipped: 0, Time elapsed: 8.648 sec
