Cassandra$1.class
CustomerAddressWriterFactory.class
CustomerWriter.class
OrderWriter.class
RFMData.class
OrderConsumer.class
RFMDataRowWriter.class
CustomerAddress.class
RFMSparkTransformations$3.class
RFMSparkTransformations.class
RFMLastRun.class
Cassandra$3.class
Cassandra.class
CustomerWriterFactory.class
AddShutdownHook$1.class
RFMSparkTransformations$1.class
Customer.class
RFMSummaryStatistics.class
RFMCalc$2.class
RFMConsumer.class
CustomerAddressConsumer.class
CustomerConsumer.class
Hadoop$3.class
OrderPaidStatus.class
Cassandra$5.class
Hadoop$1.class
Cassandra$2.class
AddShutdownHook.class
RFMHelpers.class
OrderWriterFactory.class
RFMCalc$1.class
RFMSummaryStatisticsWriterFactory.class
RFMDataRowWriterFactory.class
RFMSparkTransformations$2.class
Cassandra$4.class
RFMCalc.class
RFMSummaryStatisticsWriter.class
Hadoop.class
CustomerAddressWriter.class
EightyTwentySummaryStatisticsPercentages.class
Order.class
RFMCalc$3.class
Hadoop$2.class
