/Users/kartheekvadlamani/workspace/AwsLamdas/RFMCalc/src/tests/RFMHelpersTest.java
/Users/kartheekvadlamani/workspace/AwsLamdas/RFMCalc/src/tests/RFMSparkTransformationsTest.java
/Users/kartheekvadlamani/workspace/AwsLamdas/RFMCalc/src/tests/OrderPaidStatusTest.java
